…
And with another line we can create a table of these results.

``` r
tableCharacteristics(cohort1_characteristics, type = "tibble")
#> # A tibble: 22 × 6
#>    `CDM name` `Variable name`   `Variable level` `Estimate name`   
#>    <chr>      <chr>             <chr>            <chr>             
#>  1 PP_MOCK    Number records    <NA>             N                 
#>  2 PP_MOCK    Number subjects   <NA>             N                 
#>  3 PP_MOCK    Cohort start date <NA>             Median [Q25 - Q75]
#>  4 PP_MOCK    Cohort start date <NA>             [Q05 - Q95]       
#>  5 PP_MOCK    Cohort start date <NA>             Range             
#>  6 PP_MOCK    Cohort end date   <NA>             Median [Q25 - Q75]
#>  7 PP_MOCK    Cohort end date   <NA>             [Q05 - Q95]       
#>  8 PP_MOCK    Cohort end date   <NA>             Range             
#>  9 PP_MOCK    Age               <NA>             Median [Q25 - Q75]
#> 10 PP_MOCK    Age               <NA>             [Q05 - Q95]       
#> # ℹ 12 more rows
#> # ℹ 2 more variables: `[header]Cohort name\n[header_level]Cohort 1` <chr>,
#> #   `[header]Cohort name\n[header_level]Cohort 2` <chr>
```
…
